task4/counter.vcd
$version Generated by VerilatedVcd $end
$timescale 1ps $end
 $scope module TOP $end
  $var wire 1 # clk $end
  $var wire 1 $ rst $end
  $var wire 1 % en $end
  $var wire 8 & v [7:0] $end
  $var wire 12 ' bcd [11:0] $end
  $scope module top $end
   $var wire 32 * WIDTH [31:0] $end
   $var wire 1 # clk $end
   $var wire 1 $ rst $end
   $var wire 1 % en $end
   $var wire 8 & v [7:0] $end
   $var wire 12 ' bcd [11:0] $end
   $var wire 8 ( count [7:0] $end
   $scope module myCounter $end
    $var wire 32 * WIDTH [31:0] $end
    $var wire 1 # clk $end
    $var wire 1 $ rst $end
    $var wire 1 % en $end
    $var wire 8 ( count [7:0] $end
   $upscope $end
   $scope module myDecoder $end
    $var wire 8 ( x [7:0] $end
    $var wire 12 ' BCD [11:0] $end
    $var wire 20 ) result [19:0] $end
    $var wire 32 + i [31:0] $end
   $upscope $end
  $upscope $end
 $upscope $end
$enddefinitions $end


#0
1#
1$
0%
b00000000 &
b000000000000 '
b00000000 (
b00000000000000000000 )
b00000000000000000000000000001000 *
b00000000000000000000000000001000 +
#2
0#
#4
#6
0$
#8
#10
#12
1%
#14
b000000000001 '
b00000001 (
b00000000000100000000 )
#16
b000000000010 '
b00000010 (
b00000000001000000000 )
#18
b000000000011 '
b00000011 (
b00000000001100000000 )
#20
b000000000100 '
b00000100 (
b00000000010000000000 )
#22
b000000000101 '
b00000101 (
b00000000010100000000 )
#24
b000000000110 '
b00000110 (
b00000000011000000000 )
#26
b000000000111 '
b00000111 (
b00000000011100000000 )
#28
b000000001000 '
b00001000 (
b00000000100000000000 )
#30
b000000001001 '
b00001001 (
b00000000100100000000 )
#32
1$
b000000000000 '
b00000000 (
b00000000000000000000 )
#34
0$
b000000000001 '
b00000001 (
b00000000000100000000 )
#36
b000000000010 '
b00000010 (
b00000000001000000000 )
#38
b000000000011 '
b00000011 (
b00000000001100000000 )
#40
b000000000100 '
b00000100 (
b00000000010000000000 )
#42
b000000000101 '
b00000101 (
b00000000010100000000 )
#44
b000000000110 '
b00000110 (
b00000000011000000000 )
#46
b000000000111 '
b00000111 (
b00000000011100000000 )
#48
b000000001000 '
b00001000 (
b00000000100000000000 )
#50
b000000001001 '
b00001001 (
b00000000100100000000 )
#52
b000000010000 '
b00001010 (
b00000001000000000000 )
#54
b000000010001 '
b00001011 (
b00000001000100000000 )
#56
b000000010010 '
b00001100 (
b00000001001000000000 )
#58
b000000010011 '
b00001101 (
b00000001001100000000 )
#60
b000000010100 '
b00001110 (
b00000001010000000000 )
#62
b000000010101 '
b00001111 (
b00000001010100000000 )
#64
b000000010110 '
b00010000 (
b00000001011000000000 )
#66
b000000010111 '
b00010001 (
b00000001011100000000 )
#68
b000000011000 '
b00010010 (
b00000001100000000000 )
#70
b000000011001 '
b00010011 (
b00000001100100000000 )
#72
b000000100000 '
b00010100 (
b00000010000000000000 )
#74
b000000100001 '
b00010101 (
b00000010000100000000 )
#76
b000000100010 '
b00010110 (
b00000010001000000000 )
#78
b000000100011 '
b00010111 (
b00000010001100000000 )
#80
b000000100100 '
b00011000 (
b00000010010000000000 )
#82
b000000100101 '
b00011001 (
b00000010010100000000 )
#84
b000000100110 '
b00011010 (
b00000010011000000000 )
#86
b000000100111 '
b00011011 (
b00000010011100000000 )
#88
b000000101000 '
b00011100 (
b00000010100000000000 )
#90
b000000101001 '
b00011101 (
b00000010100100000000 )
#92
b000000110000 '
b00011110 (
b00000011000000000000 )
#94
b000000110001 '
b00011111 (
b00000011000100000000 )
#96
b000000110010 '
b00100000 (
b00000011001000000000 )
#98
b000000110011 '
b00100001 (
b00000011001100000000 )
#100
b000000110100 '
b00100010 (
b00000011010000000000 )
#102
b000000110101 '
b00100011 (
b00000011010100000000 )
#104
b000000110110 '
b00100100 (
b00000011011000000000 )
#106
b000000110111 '
b00100101 (
b00000011011100000000 )
#108
b000000111000 '
b00100110 (
b00000011100000000000 )
#110
b000000111001 '
b00100111 (
b00000011100100000000 )
#112
b000001000000 '
b00101000 (
b00000100000000000000 )
#114
b000001000001 '
b00101001 (
b00000100000100000000 )
#116
b000001000010 '
b00101010 (
b00000100001000000000 )
#118
b000001000011 '
b00101011 (
b00000100001100000000 )
#120
b000001000100 '
b00101100 (
b00000100010000000000 )
#122
b000001000101 '
b00101101 (
b00000100010100000000 )
#124
b000001000110 '
b00101110 (
b00000100011000000000 )
#126
b000001000111 '
b00101111 (
b00000100011100000000 )
#128
b000001001000 '
b00110000 (
b00000100100000000000 )
#130
b000001001001 '
b00110001 (
b00000100100100000000 )
#132
b000001010000 '
b00110010 (
b00000101000000000000 )
#134
b000001010001 '
b00110011 (
b00000101000100000000 )
#136
b000001010010 '
b00110100 (
b00000101001000000000 )
#138
b000001010011 '
b00110101 (
b00000101001100000000 )
#140
b000001010100 '
b00110110 (
b00000101010000000000 )
#142
b000001010101 '
b00110111 (
b00000101010100000000 )
#144
b000001010110 '
b00111000 (
b00000101011000000000 )
#146
b000001010111 '
b00111001 (
b00000101011100000000 )
#148
b000001011000 '
b00111010 (
b00000101100000000000 )
#150
b000001011001 '
b00111011 (
b00000101100100000000 )
#152
b000001100000 '
b00111100 (
b00000110000000000000 )
#154
b000001100001 '
b00111101 (
b00000110000100000000 )
#156
b000001100010 '
b00111110 (
b00000110001000000000 )
#158
b000001100011 '
b00111111 (
b00000110001100000000 )
#160
b000001100100 '
b01000000 (
b00000110010000000000 )
#162
b000001100101 '
b01000001 (
b00000110010100000000 )
#164
b000001100110 '
b01000010 (
b00000110011000000000 )
#166
b000001100111 '
b01000011 (
b00000110011100000000 )
#168
b000001101000 '
b01000100 (
b00000110100000000000 )
#170
b000001101001 '
b01000101 (
b00000110100100000000 )
#172
b000001110000 '
b01000110 (
b00000111000000000000 )
#174
b000001110001 '
b01000111 (
b00000111000100000000 )
#176
b000001110010 '
b01001000 (
b00000111001000000000 )
#178
b000001110011 '
b01001001 (
b00000111001100000000 )
#180
b000001110100 '
b01001010 (
b00000111010000000000 )
#182
b000001110101 '
b01001011 (
b00000111010100000000 )
#184
b000001110110 '
b01001100 (
b00000111011000000000 )
#186
b000001110111 '
b01001101 (
b00000111011100000000 )
#188
b000001111000 '
b01001110 (
b00000111100000000000 )
#190
b000001111001 '
b01001111 (
b00000111100100000000 )
#192
b000010000000 '
b01010000 (
b00001000000000000000 )
#194
b000010000001 '
b01010001 (
b00001000000100000000 )
#196
b000010000010 '
b01010010 (
b00001000001000000000 )
#198
b000010000011 '
b01010011 (
b00001000001100000000 )
#200
b000010000100 '
b01010100 (
b00001000010000000000 )
#202
b000010000101 '
b01010101 (
b00001000010100000000 )
#204
b000010000110 '
b01010110 (
b00001000011000000000 )
#206
b000010000111 '
b01010111 (
b00001000011100000000 )
#208
b000010001000 '
b01011000 (
b00001000100000000000 )
#210
b000010001001 '
b01011001 (
b00001000100100000000 )
#212
b000010010000 '
b01011010 (
b00001001000000000000 )
#214
b000010010001 '
b01011011 (
b00001001000100000000 )
#216
b000010010010 '
b01011100 (
b00001001001000000000 )
#218
b000010010011 '
b01011101 (
b00001001001100000000 )
#220
b000010010100 '
b01011110 (
b00001001010000000000 )
#222
b000010010101 '
b01011111 (
b00001001010100000000 )
#224
b000010010110 '
b01100000 (
b00001001011000000000 )
#226
b000010010111 '
b01100001 (
b00001001011100000000 )
#228
b000010011000 '
b01100010 (
b00001001100000000000 )
#230
b000010011001 '
b01100011 (
b00001001100100000000 )
#232
b000100000000 '
b01100100 (
b00010000000000000000 )
#234
b000100000001 '
b01100101 (
b00010000000100000000 )
#236
b000100000010 '
b01100110 (
b00010000001000000000 )
#238
b000100000011 '
b01100111 (
b00010000001100000000 )
#240
b000100000100 '
b01101000 (
b00010000010000000000 )
#242
b000100000101 '
b01101001 (
b00010000010100000000 )
#244
b000100000110 '
b01101010 (
b00010000011000000000 )
#246
b000100000111 '
b01101011 (
b00010000011100000000 )
#248
b000100001000 '
b01101100 (
b00010000100000000000 )
#250
b000100001001 '
b01101101 (
b00010000100100000000 )
#252
b000100010000 '
b01101110 (
b00010001000000000000 )
#254
b000100010001 '
b01101111 (
b00010001000100000000 )
#256
b000100010010 '
b01110000 (
b00010001001000000000 )
#258
b000100010011 '
b01110001 (
b00010001001100000000 )
#260
b000100010100 '
b01110010 (
b00010001010000000000 )
#262
b000100010101 '
b01110011 (
b00010001010100000000 )
#264
b000100010110 '
b01110100 (
b00010001011000000000 )
#266
b000100010111 '
b01110101 (
b00010001011100000000 )
#268
b000100011000 '
b01110110 (
b00010001100000000000 )
#270
b000100011001 '
b01110111 (
b00010001100100000000 )
#272
b000100100000 '
b01111000 (
b00010010000000000000 )
#274
b000100100001 '
b01111001 (
b00010010000100000000 )
#276
b000100100010 '
b01111010 (
b00010010001000000000 )
#278
b000100100011 '
b01111011 (
b00010010001100000000 )
#280
b000100100100 '
b01111100 (
b00010010010000000000 )
#282
b000100100101 '
b01111101 (
b00010010010100000000 )
#284
b000100100110 '
b01111110 (
b00010010011000000000 )
#286
b000100100111 '
b01111111 (
b00010010011100000000 )
#288
b000100101000 '
b10000000 (
b00010010100000000000 )
#290
b000100101001 '
b10000001 (
b00010010100100000000 )
#292
b000100110000 '
b10000010 (
b00010011000000000000 )
#294
b000100110001 '
b10000011 (
b00010011000100000000 )
#296
b000100110010 '
b10000100 (
b00010011001000000000 )
#298
b000100110011 '
b10000101 (
b00010011001100000000 )
#300
b000100110100 '
b10000110 (
b00010011010000000000 )
#302
b000100110101 '
b10000111 (
b00010011010100000000 )
#304
b000100110110 '
b10001000 (
b00010011011000000000 )
#306
b000100110111 '
b10001001 (
b00010011011100000000 )
#308
b000100111000 '
b10001010 (
b00010011100000000000 )
#310
b000100111001 '
b10001011 (
b00010011100100000000 )
#312
b000101000000 '
b10001100 (
b00010100000000000000 )
#314
b000101000001 '
b10001101 (
b00010100000100000000 )
#316
b000101000010 '
b10001110 (
b00010100001000000000 )
#318
b000101000011 '
b10001111 (
b00010100001100000000 )
#320
b000101000100 '
b10010000 (
b00010100010000000000 )
#322
b000101000101 '
b10010001 (
b00010100010100000000 )
#324
b000101000110 '
b10010010 (
b00010100011000000000 )
#326
b000101000111 '
b10010011 (
b00010100011100000000 )
#328
b000101001000 '
b10010100 (
b00010100100000000000 )
#330
b000101001001 '
b10010101 (
b00010100100100000000 )
#332
b000101010000 '
b10010110 (
b00010101000000000000 )
#334
b000101010001 '
b10010111 (
b00010101000100000000 )
#336
b000101010010 '
b10011000 (
b00010101001000000000 )
#338
b000101010011 '
b10011001 (
b00010101001100000000 )
#340
b000101010100 '
b10011010 (
b00010101010000000000 )
#342
b000101010101 '
b10011011 (
b00010101010100000000 )
#344
b000101010110 '
b10011100 (
b00010101011000000000 )
#346
b000101010111 '
b10011101 (
b00010101011100000000 )
#348
b000101011000 '
b10011110 (
b00010101100000000000 )
#350
b000101011001 '
b10011111 (
b00010101100100000000 )
#352
b000101100000 '
b10100000 (
b00010110000000000000 )
#354
b000101100001 '
b10100001 (
b00010110000100000000 )
#356
b000101100010 '
b10100010 (
b00010110001000000000 )
#358
b000101100011 '
b10100011 (
b00010110001100000000 )
#360
b000101100100 '
b10100100 (
b00010110010000000000 )
#362
b000101100101 '
b10100101 (
b00010110010100000000 )
#364
b000101100110 '
b10100110 (
b00010110011000000000 )
#366
b000101100111 '
b10100111 (
b00010110011100000000 )
#368
b000101101000 '
b10101000 (
b00010110100000000000 )
#370
b000101101001 '
b10101001 (
b00010110100100000000 )
#372
b000101110000 '
b10101010 (
b00010111000000000000 )
#374
b000101110001 '
b10101011 (
b00010111000100000000 )
#376
b000101110010 '
b10101100 (
b00010111001000000000 )
#378
b000101110011 '
b10101101 (
b00010111001100000000 )
#380
b000101110100 '
b10101110 (
b00010111010000000000 )
#382
b000101110101 '
b10101111 (
b00010111010100000000 )
#384
b000101110110 '
b10110000 (
b00010111011000000000 )
#386
b000101110111 '
b10110001 (
b00010111011100000000 )
#388
b000101111000 '
b10110010 (
b00010111100000000000 )
#390
b000101111001 '
b10110011 (
b00010111100100000000 )
#392
b000110000000 '
b10110100 (
b00011000000000000000 )
#394
b000110000001 '
b10110101 (
b00011000000100000000 )
#396
b000110000010 '
b10110110 (
b00011000001000000000 )
#398
b000110000011 '
b10110111 (
b00011000001100000000 )
#400
b000110000100 '
b10111000 (
b00011000010000000000 )
#402
b000110000101 '
b10111001 (
b00011000010100000000 )
#404
b000110000110 '
b10111010 (
b00011000011000000000 )
#406
b000110000111 '
b10111011 (
b00011000011100000000 )
#408
b000110001000 '
b10111100 (
b00011000100000000000 )
#410
b000110001001 '
b10111101 (
b00011000100100000000 )
#412
b000110010000 '
b10111110 (
b00011001000000000000 )
#414
b000110010001 '
b10111111 (
b00011001000100000000 )
#416
b000110010010 '
b11000000 (
b00011001001000000000 )
#418
b000110010011 '
b11000001 (
b00011001001100000000 )
#420
b000110010100 '
b11000010 (
b00011001010000000000 )
#422
b000110010101 '
b11000011 (
b00011001010100000000 )
#424
b000110010110 '
b11000100 (
b00011001011000000000 )
#426
b000110010111 '
b11000101 (
b00011001011100000000 )
#428
b000110011000 '
b11000110 (
b00011001100000000000 )
#430
b000110011001 '
b11000111 (
b00011001100100000000 )
#432
b001000000000 '
b11001000 (
b00100000000000000000 )
#434
b001000000001 '
b11001001 (
b00100000000100000000 )
#436
b001000000010 '
b11001010 (
b00100000001000000000 )
#438
b001000000011 '
b11001011 (
b00100000001100000000 )
#440
b001000000100 '
b11001100 (
b00100000010000000000 )
#442
b001000000101 '
b11001101 (
b00100000010100000000 )
#444
b001000000110 '
b11001110 (
b00100000011000000000 )
#446
b001000000111 '
b11001111 (
b00100000011100000000 )
#448
b001000001000 '
b11010000 (
b00100000100000000000 )
#450
b001000001001 '
b11010001 (
b00100000100100000000 )
#452
b001000010000 '
b11010010 (
b00100001000000000000 )
#454
b001000010001 '
b11010011 (
b00100001000100000000 )
#456
b001000010010 '
b11010100 (
b00100001001000000000 )
#458
b001000010011 '
b11010101 (
b00100001001100000000 )
#460
b001000010100 '
b11010110 (
b00100001010000000000 )
#462
b001000010101 '
b11010111 (
b00100001010100000000 )
#464
b001000010110 '
b11011000 (
b00100001011000000000 )
#466
b001000010111 '
b11011001 (
b00100001011100000000 )
#468
b001000011000 '
b11011010 (
b00100001100000000000 )
#470
b001000011001 '
b11011011 (
b00100001100100000000 )
#472
b001000100000 '
b11011100 (
b00100010000000000000 )
#474
b001000100001 '
b11011101 (
b00100010000100000000 )
#476
b001000100010 '
b11011110 (
b00100010001000000000 )
#478
b001000100011 '
b11011111 (
b00100010001100000000 )
#480
b001000100100 '
b11100000 (
b00100010010000000000 )
#482
b001000100101 '
b11100001 (
b00100010010100000000 )
#484
b001000100110 '
b11100010 (
b00100010011000000000 )
#486
b001000100111 '
b11100011 (
b00100010011100000000 )
#488
b001000101000 '
b11100100 (
b00100010100000000000 )
#490
b001000101001 '
b11100101 (
b00100010100100000000 )
#492
b001000110000 '
b11100110 (
b00100011000000000000 )
#494
b001000110001 '
b11100111 (
b00100011000100000000 )
#496
b001000110010 '
b11101000 (
b00100011001000000000 )
#498
b001000110011 '
b11101001 (
b00100011001100000000 )
#500
b001000110100 '
b11101010 (
b00100011010000000000 )
#502
b001000110101 '
b11101011 (
b00100011010100000000 )
#504
b001000110110 '
b11101100 (
b00100011011000000000 )
#506
b001000110111 '
b11101101 (
b00100011011100000000 )
#508
b001000111000 '
b11101110 (
b00100011100000000000 )
#510
b001000111001 '
b11101111 (
b00100011100100000000 )
#512
b001001000000 '
b11110000 (
b00100100000000000000 )
#514
b001001000001 '
b11110001 (
b00100100000100000000 )
#516
b001001000010 '
b11110010 (
b00100100001000000000 )
#518
b001001000011 '
b11110011 (
b00100100001100000000 )
#520
b001001000100 '
b11110100 (
b00100100010000000000 )
#522
b001001000101 '
b11110101 (
b00100100010100000000 )
#524
b001001000110 '
b11110110 (
b00100100011000000000 )
#526
b001001000111 '
b11110111 (
b00100100011100000000 )
#528
b001001001000 '
b11111000 (
b00100100100000000000 )
#530
b001001001001 '
b11111001 (
b00100100100100000000 )
#532
b001001010000 '
b11111010 (
b00100101000000000000 )
#534
b001001010001 '
b11111011 (
b00100101000100000000 )
#536
b001001010010 '
b11111100 (
b00100101001000000000 )
#538
b001001010011 '
b11111101 (
b00100101001100000000 )
#540
b001001010100 '
b11111110 (
b00100101010000000000 )
#542
b001001010101 '
b11111111 (
b00100101010100000000 )
#544
b000000000000 '
b00000000 (
b00000000000000000000 )
#546
b000000000001 '
b00000001 (
b00000000000100000000 )
#548
b000000000010 '
b00000010 (
b00000000001000000000 )
#550
b000000000011 '
b00000011 (
b00000000001100000000 )
#552
b000000000100 '
b00000100 (
b00000000010000000000 )
#554
b000000000101 '
b00000101 (
b00000000010100000000 )
#556
b000000000110 '
b00000110 (
b00000000011000000000 )
#558
b000000000111 '
b00000111 (
b00000000011100000000 )
#560
b000000001000 '
b00001000 (
b00000000100000000000 )
#562
b000000001001 '
b00001001 (
b00000000100100000000 )
#564
b000000010000 '
b00001010 (
b00000001000000000000 )
#566
b000000010001 '
b00001011 (
b00000001000100000000 )
#568
b000000010010 '
b00001100 (
b00000001001000000000 )
#570
b000000010011 '
b00001101 (
b00000001001100000000 )
#572
b000000010100 '
b00001110 (
b00000001010000000000 )
#574
b000000010101 '
b00001111 (
b00000001010100000000 )
#576
b000000010110 '
b00010000 (
b00000001011000000000 )
#578
b000000010111 '
b00010001 (
b00000001011100000000 )
#580
b000000011000 '
b00010010 (
b00000001100000000000 )
#582
b000000011001 '
b00010011 (
b00000001100100000000 )
#584
b000000100000 '
b00010100 (
b00000010000000000000 )
#586
b000000100001 '
b00010101 (
b00000010000100000000 )
#588
b000000100010 '
b00010110 (
b00000010001000000000 )
#590
b000000100011 '
b00010111 (
b00000010001100000000 )
#592
b000000100100 '
b00011000 (
b00000010010000000000 )
#594
b000000100101 '
b00011001 (
b00000010010100000000 )
#596
b000000100110 '
b00011010 (
b00000010011000000000 )
#598
b000000100111 '
b00011011 (
b00000010011100000000 )
